American Indian,790
Multiracial,5851
Black,2863
Asian or Pacific Islander,2385
White,344568
Latino,6056
American Indian,621
Multiracial,4940
Black,1235
Asian or Pacific Islander,2266
White,299447
Latino,5154
American Indian,844
Multiracial,10372
Black,5233
Asian or Pacific Islander,6589
White,461546
Latino,10775
American Indian,4306
Multiracial,75457
Black,143819
Asian or Pacific Islander,54069
White,1575322
Latino,93291
